%YAML 1.1
%TAG !u! tag:unity3d.com,2011:
--- !u!1001 &3213118252453965052
PrefabInstance:
  m_ObjectHideFlags: 0
  serializedVersion: 2
  m_Modification:
    m_TransformParent: {fileID: 0}
    m_Modifications:
    - target: {fileID: 5385936601249427095, guid: 2fdb4d68badd45242ab6f580ced4c82b, type: 3}
      propertyPath: m_RootOrder
      value: 0
      objectReference: {fileID: 0}
    - target: {fileID: 5385936601249427095, guid: 2fdb4d68badd45242ab6f580ced4c82b, type: 3}
      propertyPath: m_LocalPosition.x
      value: 0
      objectReference: {fileID: 0}
    - target: {fileID: 5385936601249427095, guid: 2fdb4d68badd45242ab6f580ced4c82b, type: 3}
      propertyPath: m_LocalPosition.y
      value: 0
      objectReference: {fileID: 0}
    - target: {fileID: 5385936601249427095, guid: 2fdb4d68badd45242ab6f580ced4c82b, type: 3}
      propertyPath: m_LocalPosition.z
      value: 0
      objectReference: {fileID: 0}
    - target: {fileID: 5385936601249427095, guid: 2fdb4d68badd45242ab6f580ced4c82b, type: 3}
      propertyPath: m_LocalRotation.w
      value: 1
      objectReference: {fileID: 0}
    - target: {fileID: 5385936601249427095, guid: 2fdb4d68badd45242ab6f580ced4c82b, type: 3}
      propertyPath: m_LocalRotation.x
      value: 0
      objectReference: {fileID: 0}
    - target: {fileID: 5385936601249427095, guid: 2fdb4d68badd45242ab6f580ced4c82b, type: 3}
      propertyPath: m_LocalRotation.y
      value: 0
      objectReference: {fileID: 0}
    - target: {fileID: 5385936601249427095, guid: 2fdb4d68badd45242ab6f580ced4c82b, type: 3}
      propertyPath: m_LocalRotation.z
      value: 0
      objectReference: {fileID: 0}
    - target: {fileID: 5385936601249427095, guid: 2fdb4d68badd45242ab6f580ced4c82b, type: 3}
      propertyPath: m_LocalEulerAnglesHint.x
      value: 0
      objectReference: {fileID: 0}
    - target: {fileID: 5385936601249427095, guid: 2fdb4d68badd45242ab6f580ced4c82b, type: 3}
      propertyPath: m_LocalEulerAnglesHint.y
      value: 0
      objectReference: {fileID: 0}
    - target: {fileID: 5385936601249427095, guid: 2fdb4d68badd45242ab6f580ced4c82b, type: 3}
      propertyPath: m_LocalEulerAnglesHint.z
      value: 0
      objectReference: {fileID: 0}
    - target: {fileID: 5385936601249427096, guid: 2fdb4d68badd45242ab6f580ced4c82b, type: 3}
      propertyPath: m_Name
      value: Straight_Instrument
      objectReference: {fileID: 0}
    - target: {fileID: 5385936601249427096, guid: 2fdb4d68badd45242ab6f580ced4c82b, type: 3}
      propertyPath: m_IsActive
      value: 0
      objectReference: {fileID: 0}
    - target: {fileID: 7341210210003717701, guid: 2fdb4d68badd45242ab6f580ced4c82b, type: 3}
      propertyPath: m_UseWorldSpace
      value: 0
      objectReference: {fileID: 0}
    - target: {fileID: 7341210210003717701, guid: 2fdb4d68badd45242ab6f580ced4c82b, type: 3}
      propertyPath: m_Positions.Array.size
      value: 2
      objectReference: {fileID: 0}
    - target: {fileID: 7341210210003717701, guid: 2fdb4d68badd45242ab6f580ced4c82b, type: 3}
      propertyPath: m_Positions.Array.data[1].z
      value: 1
      objectReference: {fileID: 0}
    m_RemovedComponents: []
  m_SourcePrefab: {fileID: 100100000, guid: 2fdb4d68badd45242ab6f580ced4c82b, type: 3}
