%YAML 1.1
%TAG !u! tag:unity3d.com,2011:
--- !u!1045 &1
EditorBuildSettings:
  m_ObjectHideFlags: 0
  serializedVersion: 2
  m_Scenes:
  - enabled: 1
    path: Assets/Scenes/Init.unity
    guid: 28a213ddb0f959038b9e17f2f0e0e36e
  - enabled: 1
    path: Assets/Scenes/Game.unity
    guid: 2cda990e2423bbf4892e6590ba056729
  m_configObjects:
    Unity.XR.Oculus.Settings: {fileID: 11400000, guid: 2c49fb48027692b42bbc1748ad8e2c88, type: 2}
    com.unity.addressableassets: {fileID: 11400000, guid: 0d925d3fabdf239bfb414010554f374c, type: 2}
    com.unity.input.settings: {fileID: 11400000, guid: 04c1fac06157f2745bd9bf5027ce613f, type: 2}
    com.unity.xr.management.loader_settings: {fileID: 11400000, guid: 8b940a29a457cf746a741b1598b6450c, type: 2}
    com.unity.xr.openxr.settings4: {fileID: 11400000, guid: d6681bd90c8874d8683659b688fd56a2, type: 2}
    xr.sdk.mock-hmd.settings: {fileID: 11400000, guid: 1fa208b7ba234f0c68993f7df27eae13, type: 2}
  m_UseUCBPForAssetBundles: 0
